…
``` r
d50 <- summarize_tracks(tirf_data, w_avg=50, delta_frame_t=0.5, nskip=0, navg=1)
```

    ## `summarise()` has grouped output by 'condition', 'TrackID2'. You can override
    ## using the `.groups` argument.
    ## `summarise()` has grouped output by 'condition'. You can override using the
    ## `.groups` argument.

``` r
d50 %>% head(n=1000) %>% relocate(FrameGroupInt, t0, t0_true)
```

    ## # A tibble: 1,000 × 21
    ##    FrameGroupInt    t0 t0_true condition TrackID2 FrameGroup    A0 Sigma_median
    ##            <dbl> <dbl>   <dbl> <fct>        <int> <fct>      <dbl>        <dbl>
    ##  1             0    25     4.5 wt               1 [0,50)     4756.         1.84
    ##  2            25    25     4.5 wt               1 [50,100)   4756.         2.01
    ##  3            50    25     4.5 wt               1 [100,150)  4756.         2.09
    ##  4            75    25     4.5 wt               1 [150,200)  4756.         2.09
    ##  5           100    25     4.5 wt               1 [200,250)  4756.         2.21
    ##  6           125    25     4.5 wt               1 [250,300)  4756.         2.04
    ##  7           150    25     4.5 wt               1 [300,350)  4756.         2.06
    ##  8           175    25     4.5 wt               1 [350,400)  4756.         2.16
    ##  9           200    25     4.5 wt               1 [400,450)  4756.         2.16
    ## 10           225    25     4.5 wt               1 [450,500)  4756.         2.04
    ## # … with 990 more rows, and 13 more variables: SigmaNorm_median <dbl>,
    ## #   A_max <dbl>, A_mean <dbl>, Anorm_max <dbl>, Anorm_mean <dbl>,
    ## #   Anorm_median <dbl>, Frame0 <dbl>, delta_Anorm <dbl>,
    ## #   delta_Anorm_median <dbl>, FrameGroupIntMax <dbl>, AinitNorm <dbl>,
    ## #   Ainit0Norm <dbl>, ntracks_left <int>
…
